[2022-02-15 14:05:19,506] {processor.py:163} INFO - Started process (PID=7840) to work on /home/vinicius/Documents/Projects/airflow/airflow_tooltorial/venv/lib/python3.8/site-packages/airflow/example_dags/example_bash_operator.py
[2022-02-15 14:05:19,507] {processor.py:642} INFO - Processing file /home/vinicius/Documents/Projects/airflow/airflow_tooltorial/venv/lib/python3.8/site-packages/airflow/example_dags/example_bash_operator.py for tasks to queue
[2022-02-15 14:05:19,507] {logging_mixin.py:109} INFO - [2022-02-15 14:05:19,507] {dagbag.py:500} INFO - Filling up the DagBag from /home/vinicius/Documents/Projects/airflow/airflow_tooltorial/venv/lib/python3.8/site-packages/airflow/example_dags/example_bash_operator.py
[2022-02-15 14:05:19,528] {processor.py:654} INFO - DAG(s) dict_keys(['example_bash_operator']) retrieved from /home/vinicius/Documents/Projects/airflow/airflow_tooltorial/venv/lib/python3.8/site-packages/airflow/example_dags/example_bash_operator.py
[2022-02-15 14:05:19,537] {logging_mixin.py:109} INFO - [2022-02-15 14:05:19,537] {dag.py:2396} INFO - Sync 1 DAGs
[2022-02-15 14:05:19,549] {logging_mixin.py:109} INFO - [2022-02-15 14:05:19,549] {dag.py:2935} INFO - Setting next_dagrun for example_bash_operator to 2022-02-14 00:00:00+00:00
[2022-02-15 14:05:19,564] {processor.py:171} INFO - Processing /home/vinicius/Documents/Projects/airflow/airflow_tooltorial/venv/lib/python3.8/site-packages/airflow/example_dags/example_bash_operator.py took 0.060 seconds
[2022-02-15 14:05:52,390] {processor.py:163} INFO - Started process (PID=7878) to work on /home/vinicius/Documents/Projects/airflow/airflow_tooltorial/venv/lib/python3.8/site-packages/airflow/example_dags/example_bash_operator.py
[2022-02-15 14:05:52,390] {processor.py:642} INFO - Processing file /home/vinicius/Documents/Projects/airflow/airflow_tooltorial/venv/lib/python3.8/site-packages/airflow/example_dags/example_bash_operator.py for tasks to queue
[2022-02-15 14:05:52,391] {logging_mixin.py:109} INFO - [2022-02-15 14:05:52,391] {dagbag.py:500} INFO - Filling up the DagBag from /home/vinicius/Documents/Projects/airflow/airflow_tooltorial/venv/lib/python3.8/site-packages/airflow/example_dags/example_bash_operator.py
[2022-02-15 14:05:52,418] {processor.py:654} INFO - DAG(s) dict_keys(['example_bash_operator']) retrieved from /home/vinicius/Documents/Projects/airflow/airflow_tooltorial/venv/lib/python3.8/site-packages/airflow/example_dags/example_bash_operator.py
[2022-02-15 14:05:52,428] {logging_mixin.py:109} INFO - [2022-02-15 14:05:52,427] {dag.py:2396} INFO - Sync 1 DAGs
[2022-02-15 14:05:52,440] {logging_mixin.py:109} INFO - [2022-02-15 14:05:52,440] {dag.py:2935} INFO - Setting next_dagrun for example_bash_operator to 2022-02-14 00:00:00+00:00
[2022-02-15 14:05:52,454] {processor.py:171} INFO - Processing /home/vinicius/Documents/Projects/airflow/airflow_tooltorial/venv/lib/python3.8/site-packages/airflow/example_dags/example_bash_operator.py took 0.066 seconds
[2022-02-15 14:06:25,871] {processor.py:163} INFO - Started process (PID=7912) to work on /home/vinicius/Documents/Projects/airflow/airflow_tooltorial/venv/lib/python3.8/site-packages/airflow/example_dags/example_bash_operator.py
[2022-02-15 14:06:25,874] {processor.py:642} INFO - Processing file /home/vinicius/Documents/Projects/airflow/airflow_tooltorial/venv/lib/python3.8/site-packages/airflow/example_dags/example_bash_operator.py for tasks to queue
[2022-02-15 14:06:25,875] {logging_mixin.py:109} INFO - [2022-02-15 14:06:25,875] {dagbag.py:500} INFO - Filling up the DagBag from /home/vinicius/Documents/Projects/airflow/airflow_tooltorial/venv/lib/python3.8/site-packages/airflow/example_dags/example_bash_operator.py
[2022-02-15 14:06:25,893] {processor.py:654} INFO - DAG(s) dict_keys(['example_bash_operator']) retrieved from /home/vinicius/Documents/Projects/airflow/airflow_tooltorial/venv/lib/python3.8/site-packages/airflow/example_dags/example_bash_operator.py
[2022-02-15 14:06:25,900] {logging_mixin.py:109} INFO - [2022-02-15 14:06:25,900] {dag.py:2396} INFO - Sync 1 DAGs
[2022-02-15 14:06:25,911] {logging_mixin.py:109} INFO - [2022-02-15 14:06:25,911] {dag.py:2935} INFO - Setting next_dagrun for example_bash_operator to 2022-02-14 00:00:00+00:00
[2022-02-15 14:06:25,923] {processor.py:171} INFO - Processing /home/vinicius/Documents/Projects/airflow/airflow_tooltorial/venv/lib/python3.8/site-packages/airflow/example_dags/example_bash_operator.py took 0.055 seconds
[2022-02-15 14:07:00,330] {processor.py:163} INFO - Started process (PID=7949) to work on /home/vinicius/Documents/Projects/airflow/airflow_tooltorial/venv/lib/python3.8/site-packages/airflow/example_dags/example_bash_operator.py
[2022-02-15 14:07:00,331] {processor.py:642} INFO - Processing file /home/vinicius/Documents/Projects/airflow/airflow_tooltorial/venv/lib/python3.8/site-packages/airflow/example_dags/example_bash_operator.py for tasks to queue
[2022-02-15 14:07:00,331] {logging_mixin.py:109} INFO - [2022-02-15 14:07:00,331] {dagbag.py:500} INFO - Filling up the DagBag from /home/vinicius/Documents/Projects/airflow/airflow_tooltorial/venv/lib/python3.8/site-packages/airflow/example_dags/example_bash_operator.py
[2022-02-15 14:07:00,349] {processor.py:654} INFO - DAG(s) dict_keys(['example_bash_operator']) retrieved from /home/vinicius/Documents/Projects/airflow/airflow_tooltorial/venv/lib/python3.8/site-packages/airflow/example_dags/example_bash_operator.py
[2022-02-15 14:07:00,357] {logging_mixin.py:109} INFO - [2022-02-15 14:07:00,356] {dag.py:2396} INFO - Sync 1 DAGs
[2022-02-15 14:07:00,368] {logging_mixin.py:109} INFO - [2022-02-15 14:07:00,368] {dag.py:2935} INFO - Setting next_dagrun for example_bash_operator to 2022-02-14 00:00:00+00:00
[2022-02-15 14:07:00,380] {processor.py:171} INFO - Processing /home/vinicius/Documents/Projects/airflow/airflow_tooltorial/venv/lib/python3.8/site-packages/airflow/example_dags/example_bash_operator.py took 0.054 seconds
[2022-02-15 14:07:33,606] {processor.py:163} INFO - Started process (PID=7987) to work on /home/vinicius/Documents/Projects/airflow/airflow_tooltorial/venv/lib/python3.8/site-packages/airflow/example_dags/example_bash_operator.py
[2022-02-15 14:07:33,609] {processor.py:642} INFO - Processing file /home/vinicius/Documents/Projects/airflow/airflow_tooltorial/venv/lib/python3.8/site-packages/airflow/example_dags/example_bash_operator.py for tasks to queue
[2022-02-15 14:07:33,610] {logging_mixin.py:109} INFO - [2022-02-15 14:07:33,609] {dagbag.py:500} INFO - Filling up the DagBag from /home/vinicius/Documents/Projects/airflow/airflow_tooltorial/venv/lib/python3.8/site-packages/airflow/example_dags/example_bash_operator.py
[2022-02-15 14:07:33,628] {processor.py:654} INFO - DAG(s) dict_keys(['example_bash_operator']) retrieved from /home/vinicius/Documents/Projects/airflow/airflow_tooltorial/venv/lib/python3.8/site-packages/airflow/example_dags/example_bash_operator.py
[2022-02-15 14:07:33,635] {logging_mixin.py:109} INFO - [2022-02-15 14:07:33,635] {dag.py:2396} INFO - Sync 1 DAGs
[2022-02-15 14:07:33,646] {logging_mixin.py:109} INFO - [2022-02-15 14:07:33,646] {dag.py:2935} INFO - Setting next_dagrun for example_bash_operator to 2022-02-14 00:00:00+00:00
[2022-02-15 14:07:33,656] {processor.py:171} INFO - Processing /home/vinicius/Documents/Projects/airflow/airflow_tooltorial/venv/lib/python3.8/site-packages/airflow/example_dags/example_bash_operator.py took 0.053 seconds
[2022-02-15 14:08:08,753] {processor.py:163} INFO - Started process (PID=8025) to work on /home/vinicius/Documents/Projects/airflow/airflow_tooltorial/venv/lib/python3.8/site-packages/airflow/example_dags/example_bash_operator.py
[2022-02-15 14:08:08,756] {processor.py:642} INFO - Processing file /home/vinicius/Documents/Projects/airflow/airflow_tooltorial/venv/lib/python3.8/site-packages/airflow/example_dags/example_bash_operator.py for tasks to queue
[2022-02-15 14:08:08,757] {logging_mixin.py:109} INFO - [2022-02-15 14:08:08,757] {dagbag.py:500} INFO - Filling up the DagBag from /home/vinicius/Documents/Projects/airflow/airflow_tooltorial/venv/lib/python3.8/site-packages/airflow/example_dags/example_bash_operator.py
[2022-02-15 14:08:08,777] {processor.py:654} INFO - DAG(s) dict_keys(['example_bash_operator']) retrieved from /home/vinicius/Documents/Projects/airflow/airflow_tooltorial/venv/lib/python3.8/site-packages/airflow/example_dags/example_bash_operator.py
[2022-02-15 14:08:08,786] {logging_mixin.py:109} INFO - [2022-02-15 14:08:08,786] {dag.py:2396} INFO - Sync 1 DAGs
[2022-02-15 14:08:08,797] {logging_mixin.py:109} INFO - [2022-02-15 14:08:08,797] {dag.py:2935} INFO - Setting next_dagrun for example_bash_operator to 2022-02-14 00:00:00+00:00
[2022-02-15 14:08:08,809] {processor.py:171} INFO - Processing /home/vinicius/Documents/Projects/airflow/airflow_tooltorial/venv/lib/python3.8/site-packages/airflow/example_dags/example_bash_operator.py took 0.058 seconds
[2022-02-15 14:08:42,216] {processor.py:163} INFO - Started process (PID=8088) to work on /home/vinicius/Documents/Projects/airflow/airflow_tooltorial/venv/lib/python3.8/site-packages/airflow/example_dags/example_bash_operator.py
[2022-02-15 14:08:42,217] {processor.py:642} INFO - Processing file /home/vinicius/Documents/Projects/airflow/airflow_tooltorial/venv/lib/python3.8/site-packages/airflow/example_dags/example_bash_operator.py for tasks to queue
[2022-02-15 14:08:42,217] {logging_mixin.py:109} INFO - [2022-02-15 14:08:42,217] {dagbag.py:500} INFO - Filling up the DagBag from /home/vinicius/Documents/Projects/airflow/airflow_tooltorial/venv/lib/python3.8/site-packages/airflow/example_dags/example_bash_operator.py
[2022-02-15 14:08:42,236] {processor.py:654} INFO - DAG(s) dict_keys(['example_bash_operator']) retrieved from /home/vinicius/Documents/Projects/airflow/airflow_tooltorial/venv/lib/python3.8/site-packages/airflow/example_dags/example_bash_operator.py
[2022-02-15 14:08:42,246] {logging_mixin.py:109} INFO - [2022-02-15 14:08:42,246] {dag.py:2396} INFO - Sync 1 DAGs
[2022-02-15 14:08:42,260] {logging_mixin.py:109} INFO - [2022-02-15 14:08:42,259] {dag.py:2935} INFO - Setting next_dagrun for example_bash_operator to 2022-02-14 00:00:00+00:00
[2022-02-15 14:08:42,273] {processor.py:171} INFO - Processing /home/vinicius/Documents/Projects/airflow/airflow_tooltorial/venv/lib/python3.8/site-packages/airflow/example_dags/example_bash_operator.py took 0.060 seconds
[2022-02-15 14:09:15,222] {processor.py:163} INFO - Started process (PID=8148) to work on /home/vinicius/Documents/Projects/airflow/airflow_tooltorial/venv/lib/python3.8/site-packages/airflow/example_dags/example_bash_operator.py
[2022-02-15 14:09:15,224] {processor.py:642} INFO - Processing file /home/vinicius/Documents/Projects/airflow/airflow_tooltorial/venv/lib/python3.8/site-packages/airflow/example_dags/example_bash_operator.py for tasks to queue
[2022-02-15 14:09:15,225] {logging_mixin.py:109} INFO - [2022-02-15 14:09:15,225] {dagbag.py:500} INFO - Filling up the DagBag from /home/vinicius/Documents/Projects/airflow/airflow_tooltorial/venv/lib/python3.8/site-packages/airflow/example_dags/example_bash_operator.py
[2022-02-15 14:09:15,243] {processor.py:654} INFO - DAG(s) dict_keys(['example_bash_operator']) retrieved from /home/vinicius/Documents/Projects/airflow/airflow_tooltorial/venv/lib/python3.8/site-packages/airflow/example_dags/example_bash_operator.py
[2022-02-15 14:09:15,251] {logging_mixin.py:109} INFO - [2022-02-15 14:09:15,251] {dag.py:2396} INFO - Sync 1 DAGs
[2022-02-15 14:09:15,264] {logging_mixin.py:109} INFO - [2022-02-15 14:09:15,264] {dag.py:2935} INFO - Setting next_dagrun for example_bash_operator to 2022-02-14 00:00:00+00:00
[2022-02-15 14:09:15,276] {processor.py:171} INFO - Processing /home/vinicius/Documents/Projects/airflow/airflow_tooltorial/venv/lib/python3.8/site-packages/airflow/example_dags/example_bash_operator.py took 0.057 seconds
[2022-02-15 14:09:48,717] {processor.py:163} INFO - Started process (PID=8198) to work on /home/vinicius/Documents/Projects/airflow/airflow_tooltorial/venv/lib/python3.8/site-packages/airflow/example_dags/example_bash_operator.py
[2022-02-15 14:09:48,718] {processor.py:642} INFO - Processing file /home/vinicius/Documents/Projects/airflow/airflow_tooltorial/venv/lib/python3.8/site-packages/airflow/example_dags/example_bash_operator.py for tasks to queue
[2022-02-15 14:09:48,718] {logging_mixin.py:109} INFO - [2022-02-15 14:09:48,718] {dagbag.py:500} INFO - Filling up the DagBag from /home/vinicius/Documents/Projects/airflow/airflow_tooltorial/venv/lib/python3.8/site-packages/airflow/example_dags/example_bash_operator.py
[2022-02-15 14:09:48,736] {processor.py:654} INFO - DAG(s) dict_keys(['example_bash_operator']) retrieved from /home/vinicius/Documents/Projects/airflow/airflow_tooltorial/venv/lib/python3.8/site-packages/airflow/example_dags/example_bash_operator.py
[2022-02-15 14:09:48,744] {logging_mixin.py:109} INFO - [2022-02-15 14:09:48,744] {dag.py:2396} INFO - Sync 1 DAGs
[2022-02-15 14:09:48,755] {logging_mixin.py:109} INFO - [2022-02-15 14:09:48,755] {dag.py:2935} INFO - Setting next_dagrun for example_bash_operator to 2022-02-14 00:00:00+00:00
[2022-02-15 14:09:48,766] {processor.py:171} INFO - Processing /home/vinicius/Documents/Projects/airflow/airflow_tooltorial/venv/lib/python3.8/site-packages/airflow/example_dags/example_bash_operator.py took 0.052 seconds
[2022-02-15 14:10:23,591] {processor.py:163} INFO - Started process (PID=8259) to work on /home/vinicius/Documents/Projects/airflow/airflow_tooltorial/venv/lib/python3.8/site-packages/airflow/example_dags/example_bash_operator.py
[2022-02-15 14:10:23,594] {processor.py:642} INFO - Processing file /home/vinicius/Documents/Projects/airflow/airflow_tooltorial/venv/lib/python3.8/site-packages/airflow/example_dags/example_bash_operator.py for tasks to queue
[2022-02-15 14:10:23,595] {logging_mixin.py:109} INFO - [2022-02-15 14:10:23,595] {dagbag.py:500} INFO - Filling up the DagBag from /home/vinicius/Documents/Projects/airflow/airflow_tooltorial/venv/lib/python3.8/site-packages/airflow/example_dags/example_bash_operator.py
[2022-02-15 14:10:23,620] {processor.py:654} INFO - DAG(s) dict_keys(['example_bash_operator']) retrieved from /home/vinicius/Documents/Projects/airflow/airflow_tooltorial/venv/lib/python3.8/site-packages/airflow/example_dags/example_bash_operator.py
[2022-02-15 14:10:23,633] {logging_mixin.py:109} INFO - [2022-02-15 14:10:23,633] {dag.py:2396} INFO - Sync 1 DAGs
[2022-02-15 14:10:23,649] {logging_mixin.py:109} INFO - [2022-02-15 14:10:23,649] {dag.py:2935} INFO - Setting next_dagrun for example_bash_operator to 2022-02-14 00:00:00+00:00
[2022-02-15 14:10:23,663] {processor.py:171} INFO - Processing /home/vinicius/Documents/Projects/airflow/airflow_tooltorial/venv/lib/python3.8/site-packages/airflow/example_dags/example_bash_operator.py took 0.074 seconds
[2022-02-15 14:10:57,585] {processor.py:163} INFO - Started process (PID=8300) to work on /home/vinicius/Documents/Projects/airflow/airflow_tooltorial/venv/lib/python3.8/site-packages/airflow/example_dags/example_bash_operator.py
[2022-02-15 14:10:57,588] {processor.py:642} INFO - Processing file /home/vinicius/Documents/Projects/airflow/airflow_tooltorial/venv/lib/python3.8/site-packages/airflow/example_dags/example_bash_operator.py for tasks to queue
[2022-02-15 14:10:57,589] {logging_mixin.py:109} INFO - [2022-02-15 14:10:57,589] {dagbag.py:500} INFO - Filling up the DagBag from /home/vinicius/Documents/Projects/airflow/airflow_tooltorial/venv/lib/python3.8/site-packages/airflow/example_dags/example_bash_operator.py
[2022-02-15 14:10:57,606] {processor.py:654} INFO - DAG(s) dict_keys(['example_bash_operator']) retrieved from /home/vinicius/Documents/Projects/airflow/airflow_tooltorial/venv/lib/python3.8/site-packages/airflow/example_dags/example_bash_operator.py
[2022-02-15 14:10:57,614] {logging_mixin.py:109} INFO - [2022-02-15 14:10:57,614] {dag.py:2396} INFO - Sync 1 DAGs
[2022-02-15 14:10:57,625] {logging_mixin.py:109} INFO - [2022-02-15 14:10:57,625] {dag.py:2935} INFO - Setting next_dagrun for example_bash_operator to 2022-02-14 00:00:00+00:00
[2022-02-15 14:10:57,636] {processor.py:171} INFO - Processing /home/vinicius/Documents/Projects/airflow/airflow_tooltorial/venv/lib/python3.8/site-packages/airflow/example_dags/example_bash_operator.py took 0.053 seconds
[2022-02-15 14:11:32,595] {processor.py:163} INFO - Started process (PID=8345) to work on /home/vinicius/Documents/Projects/airflow/airflow_tooltorial/venv/lib/python3.8/site-packages/airflow/example_dags/example_bash_operator.py
[2022-02-15 14:11:32,598] {processor.py:642} INFO - Processing file /home/vinicius/Documents/Projects/airflow/airflow_tooltorial/venv/lib/python3.8/site-packages/airflow/example_dags/example_bash_operator.py for tasks to queue
[2022-02-15 14:11:32,598] {logging_mixin.py:109} INFO - [2022-02-15 14:11:32,598] {dagbag.py:500} INFO - Filling up the DagBag from /home/vinicius/Documents/Projects/airflow/airflow_tooltorial/venv/lib/python3.8/site-packages/airflow/example_dags/example_bash_operator.py
[2022-02-15 14:11:32,615] {processor.py:654} INFO - DAG(s) dict_keys(['example_bash_operator']) retrieved from /home/vinicius/Documents/Projects/airflow/airflow_tooltorial/venv/lib/python3.8/site-packages/airflow/example_dags/example_bash_operator.py
[2022-02-15 14:11:32,623] {logging_mixin.py:109} INFO - [2022-02-15 14:11:32,623] {dag.py:2396} INFO - Sync 1 DAGs
[2022-02-15 14:11:32,637] {logging_mixin.py:109} INFO - [2022-02-15 14:11:32,637] {dag.py:2935} INFO - Setting next_dagrun for example_bash_operator to 2022-02-14 00:00:00+00:00
[2022-02-15 14:11:32,649] {processor.py:171} INFO - Processing /home/vinicius/Documents/Projects/airflow/airflow_tooltorial/venv/lib/python3.8/site-packages/airflow/example_dags/example_bash_operator.py took 0.058 seconds
[2022-02-15 14:12:04,901] {processor.py:163} INFO - Started process (PID=8389) to work on /home/vinicius/Documents/Projects/airflow/airflow_tooltorial/venv/lib/python3.8/site-packages/airflow/example_dags/example_bash_operator.py
[2022-02-15 14:12:04,905] {processor.py:642} INFO - Processing file /home/vinicius/Documents/Projects/airflow/airflow_tooltorial/venv/lib/python3.8/site-packages/airflow/example_dags/example_bash_operator.py for tasks to queue
[2022-02-15 14:12:04,906] {logging_mixin.py:109} INFO - [2022-02-15 14:12:04,905] {dagbag.py:500} INFO - Filling up the DagBag from /home/vinicius/Documents/Projects/airflow/airflow_tooltorial/venv/lib/python3.8/site-packages/airflow/example_dags/example_bash_operator.py
[2022-02-15 14:12:04,923] {processor.py:654} INFO - DAG(s) dict_keys(['example_bash_operator']) retrieved from /home/vinicius/Documents/Projects/airflow/airflow_tooltorial/venv/lib/python3.8/site-packages/airflow/example_dags/example_bash_operator.py
[2022-02-15 14:12:04,930] {logging_mixin.py:109} INFO - [2022-02-15 14:12:04,930] {dag.py:2396} INFO - Sync 1 DAGs
[2022-02-15 14:12:04,941] {logging_mixin.py:109} INFO - [2022-02-15 14:12:04,941] {dag.py:2935} INFO - Setting next_dagrun for example_bash_operator to 2022-02-14 00:00:00+00:00
[2022-02-15 14:12:04,953] {processor.py:171} INFO - Processing /home/vinicius/Documents/Projects/airflow/airflow_tooltorial/venv/lib/python3.8/site-packages/airflow/example_dags/example_bash_operator.py took 0.053 seconds
[2022-02-15 14:12:39,282] {processor.py:163} INFO - Started process (PID=8450) to work on /home/vinicius/Documents/Projects/airflow/airflow_tooltorial/venv/lib/python3.8/site-packages/airflow/example_dags/example_bash_operator.py
[2022-02-15 14:12:39,283] {processor.py:642} INFO - Processing file /home/vinicius/Documents/Projects/airflow/airflow_tooltorial/venv/lib/python3.8/site-packages/airflow/example_dags/example_bash_operator.py for tasks to queue
[2022-02-15 14:12:39,284] {logging_mixin.py:109} INFO - [2022-02-15 14:12:39,283] {dagbag.py:500} INFO - Filling up the DagBag from /home/vinicius/Documents/Projects/airflow/airflow_tooltorial/venv/lib/python3.8/site-packages/airflow/example_dags/example_bash_operator.py
[2022-02-15 14:12:39,301] {processor.py:654} INFO - DAG(s) dict_keys(['example_bash_operator']) retrieved from /home/vinicius/Documents/Projects/airflow/airflow_tooltorial/venv/lib/python3.8/site-packages/airflow/example_dags/example_bash_operator.py
[2022-02-15 14:12:39,309] {logging_mixin.py:109} INFO - [2022-02-15 14:12:39,309] {dag.py:2396} INFO - Sync 1 DAGs
[2022-02-15 14:12:39,320] {logging_mixin.py:109} INFO - [2022-02-15 14:12:39,319] {dag.py:2935} INFO - Setting next_dagrun for example_bash_operator to 2022-02-14 00:00:00+00:00
[2022-02-15 14:12:39,333] {processor.py:171} INFO - Processing /home/vinicius/Documents/Projects/airflow/airflow_tooltorial/venv/lib/python3.8/site-packages/airflow/example_dags/example_bash_operator.py took 0.054 seconds
[2022-02-15 14:13:11,538] {processor.py:163} INFO - Started process (PID=8498) to work on /home/vinicius/Documents/Projects/airflow/airflow_tooltorial/venv/lib/python3.8/site-packages/airflow/example_dags/example_bash_operator.py
[2022-02-15 14:13:11,547] {processor.py:642} INFO - Processing file /home/vinicius/Documents/Projects/airflow/airflow_tooltorial/venv/lib/python3.8/site-packages/airflow/example_dags/example_bash_operator.py for tasks to queue
[2022-02-15 14:13:11,548] {logging_mixin.py:109} INFO - [2022-02-15 14:13:11,548] {dagbag.py:500} INFO - Filling up the DagBag from /home/vinicius/Documents/Projects/airflow/airflow_tooltorial/venv/lib/python3.8/site-packages/airflow/example_dags/example_bash_operator.py
[2022-02-15 14:13:11,586] {processor.py:654} INFO - DAG(s) dict_keys(['example_bash_operator']) retrieved from /home/vinicius/Documents/Projects/airflow/airflow_tooltorial/venv/lib/python3.8/site-packages/airflow/example_dags/example_bash_operator.py
[2022-02-15 14:13:11,602] {logging_mixin.py:109} INFO - [2022-02-15 14:13:11,602] {dag.py:2396} INFO - Sync 1 DAGs
[2022-02-15 14:13:11,622] {logging_mixin.py:109} INFO - [2022-02-15 14:13:11,622] {dag.py:2935} INFO - Setting next_dagrun for example_bash_operator to 2022-02-14 00:00:00+00:00
[2022-02-15 14:13:11,641] {processor.py:171} INFO - Processing /home/vinicius/Documents/Projects/airflow/airflow_tooltorial/venv/lib/python3.8/site-packages/airflow/example_dags/example_bash_operator.py took 0.107 seconds
[2022-02-15 14:13:46,076] {processor.py:163} INFO - Started process (PID=8542) to work on /home/vinicius/Documents/Projects/airflow/airflow_tooltorial/venv/lib/python3.8/site-packages/airflow/example_dags/example_bash_operator.py
[2022-02-15 14:13:46,079] {processor.py:642} INFO - Processing file /home/vinicius/Documents/Projects/airflow/airflow_tooltorial/venv/lib/python3.8/site-packages/airflow/example_dags/example_bash_operator.py for tasks to queue
[2022-02-15 14:13:46,079] {logging_mixin.py:109} INFO - [2022-02-15 14:13:46,079] {dagbag.py:500} INFO - Filling up the DagBag from /home/vinicius/Documents/Projects/airflow/airflow_tooltorial/venv/lib/python3.8/site-packages/airflow/example_dags/example_bash_operator.py
[2022-02-15 14:13:46,097] {processor.py:654} INFO - DAG(s) dict_keys(['example_bash_operator']) retrieved from /home/vinicius/Documents/Projects/airflow/airflow_tooltorial/venv/lib/python3.8/site-packages/airflow/example_dags/example_bash_operator.py
[2022-02-15 14:13:46,104] {logging_mixin.py:109} INFO - [2022-02-15 14:13:46,104] {dag.py:2396} INFO - Sync 1 DAGs
[2022-02-15 14:13:46,116] {logging_mixin.py:109} INFO - [2022-02-15 14:13:46,116] {dag.py:2935} INFO - Setting next_dagrun for example_bash_operator to 2022-02-14 00:00:00+00:00
[2022-02-15 14:13:46,129] {processor.py:171} INFO - Processing /home/vinicius/Documents/Projects/airflow/airflow_tooltorial/venv/lib/python3.8/site-packages/airflow/example_dags/example_bash_operator.py took 0.057 seconds
[2022-02-15 14:14:19,968] {processor.py:163} INFO - Started process (PID=8584) to work on /home/vinicius/Documents/Projects/airflow/airflow_tooltorial/venv/lib/python3.8/site-packages/airflow/example_dags/example_bash_operator.py
[2022-02-15 14:14:19,974] {processor.py:642} INFO - Processing file /home/vinicius/Documents/Projects/airflow/airflow_tooltorial/venv/lib/python3.8/site-packages/airflow/example_dags/example_bash_operator.py for tasks to queue
[2022-02-15 14:14:19,975] {logging_mixin.py:109} INFO - [2022-02-15 14:14:19,975] {dagbag.py:500} INFO - Filling up the DagBag from /home/vinicius/Documents/Projects/airflow/airflow_tooltorial/venv/lib/python3.8/site-packages/airflow/example_dags/example_bash_operator.py
[2022-02-15 14:14:19,992] {processor.py:654} INFO - DAG(s) dict_keys(['example_bash_operator']) retrieved from /home/vinicius/Documents/Projects/airflow/airflow_tooltorial/venv/lib/python3.8/site-packages/airflow/example_dags/example_bash_operator.py
[2022-02-15 14:14:20,000] {logging_mixin.py:109} INFO - [2022-02-15 14:14:20,000] {dag.py:2396} INFO - Sync 1 DAGs
[2022-02-15 14:14:20,016] {logging_mixin.py:109} INFO - [2022-02-15 14:14:20,016] {dag.py:2935} INFO - Setting next_dagrun for example_bash_operator to 2022-02-14 00:00:00+00:00
[2022-02-15 14:14:20,030] {processor.py:171} INFO - Processing /home/vinicius/Documents/Projects/airflow/airflow_tooltorial/venv/lib/python3.8/site-packages/airflow/example_dags/example_bash_operator.py took 0.063 seconds
[2022-02-15 14:14:53,172] {processor.py:163} INFO - Started process (PID=8641) to work on /home/vinicius/Documents/Projects/airflow/airflow_tooltorial/venv/lib/python3.8/site-packages/airflow/example_dags/example_bash_operator.py
[2022-02-15 14:14:53,176] {processor.py:642} INFO - Processing file /home/vinicius/Documents/Projects/airflow/airflow_tooltorial/venv/lib/python3.8/site-packages/airflow/example_dags/example_bash_operator.py for tasks to queue
[2022-02-15 14:14:53,177] {logging_mixin.py:109} INFO - [2022-02-15 14:14:53,177] {dagbag.py:500} INFO - Filling up the DagBag from /home/vinicius/Documents/Projects/airflow/airflow_tooltorial/venv/lib/python3.8/site-packages/airflow/example_dags/example_bash_operator.py
[2022-02-15 14:14:53,194] {processor.py:654} INFO - DAG(s) dict_keys(['example_bash_operator']) retrieved from /home/vinicius/Documents/Projects/airflow/airflow_tooltorial/venv/lib/python3.8/site-packages/airflow/example_dags/example_bash_operator.py
[2022-02-15 14:14:53,202] {logging_mixin.py:109} INFO - [2022-02-15 14:14:53,202] {dag.py:2396} INFO - Sync 1 DAGs
[2022-02-15 14:14:53,216] {logging_mixin.py:109} INFO - [2022-02-15 14:14:53,216] {dag.py:2935} INFO - Setting next_dagrun for example_bash_operator to 2022-02-14 00:00:00+00:00
[2022-02-15 14:14:53,228] {processor.py:171} INFO - Processing /home/vinicius/Documents/Projects/airflow/airflow_tooltorial/venv/lib/python3.8/site-packages/airflow/example_dags/example_bash_operator.py took 0.060 seconds
